[
  {
    "id": 1,
    "title": "ポリ袋で炊飯",
    "thumb": "/img/thumb/thumb_rice.jpg",
    "video": "cZponoefB-s",
    "summary": "ライフラインがストップした状態でご飯を炊いてみよう",
    "introduction": "私たちの生活では、1人当たり283Lの水を使っており、そのうち炊事には51Lが使われています(*1)。例えば5合(750g)のお米を炊くには、洗米・炊飯・鍋や食器洗いにそれぞれ数Lが必要で、多くの人は電気炊飯器を使うでしょう。災害時は停電・断水が起こると炊飯器でご飯を炊くことが困難になります。ですがガスやカセットボンベなどはあっても、土鍋ではなかなかうまく炊けません。そこでポリ袋と鍋でお米を炊いてみましょう。",
    "procedure": [
      "ポリ袋を用意しお米(一合)を入れます",
      "(一合の場合)水200mlを袋に入れます",
      "袋の中の空気を抜きながら口を縛ります",
      "鍋に水(泥水でも可)を入れ沸騰させたら袋を入れます",
      "30分ほど煮ます",
      "縛った部分をほどいて完成です"
    ],
    "trial": [
      "お米なら家にたくさんある",
      "カセットコンロがあれば、電気やガスが止まっていてもできそう"
    ],
    "conclusion": [
      "備蓄してあるお米を常に確認し、できるだけ早めに、かつ多めに買い足すことをオススメします。",
      "また、お米1.5kg(10合)に2Lの水が必要です。水も多めに備蓄しておくといいでしょう。"
    ],
    "ref":[
      {
        "title": "国土交通省 - 水資源の利用状況 (H30-11-30)",
        "url": "https://www.mlit.go.jp/mizukokudo/mizsei/mizukokudo_mizsei_tk2_000014.html"
      }
    ],
    "tag": [
      "食事",
      "水",
      "カセットボンベ"
    ]
  },
  {
    "id": 2,
    "title": "寝室の危険度チェック (家庭内DIG)",
    "thumb": "/img/thumb/thumb_dig.jpg",
    "video": "0NA_nA_wiDY",
    "summary": "一番無防備になる場所の危険性を確かめてみよう",
    "introduction": "test",
    "tag": [
      "寝室",
      "地震"
    ]
  },
  {
    "id": 3,
    "title": "3日間の献立づくり",
    "thumb": "/img/thumb/thumb_3days.jpg",
    "video": "eAGrPSIEhXw",
    "summary": "限られた食材の中で3日分の食事を考えてみよう",
    "introduction": "test",
    "tag": [
      "食事",
      "水",
      "カセットボンベ"
    ]
  },
  {
    "id": 4,
    "title": "ハザードマップで防災訓練",
    "thumb": "/img/thumb/thumb_hazard.jpg",
    "video": "6FLxLB0Ij7g",
    "summary": "浸水時、どこにどうやって避難するかを考えてみよう",
    "introduction": "test",
    "tag": [
      "食事",
      "水",
      "カセットボンベ"
    ]
  },
  {
    "id": 5,
    "title": "簡易トイレ体験",
    "thumb": "/img/thumb/thumb_toilet.jpg",
    "video": "GMIh1afss2E",
    "summary": "簡易トイレの使い方・仕組みを知ろう",
    "introduction": "test",
    "tag": [
      "食事",
      "水",
      "カセットボンベ"
    ]
  },
  {
    "id": 6,
    "title": "ARで浸水歩行体験",
    "thumb": "/img/thumb/thumb_ar.jpg",
    "video": "",
    "summary": "浸水時に逃げることがどれほど危険なのかを知ろう",
    "introduction": "test",
    "tag": [
      "食事",
      "水",
      "カセットボンベ"
    ]
  }
]